%!PS-Adobe-3.0 EPSF-3.0
%%Creator: (MATLAB, The Mathworks, Inc. Version 9.0.0.341360 \(R2016a\). Operating System: Mac OS X)
%%Title: /Users/duan/git/m2thesis201907duan/submission/images/boxPlot.eps
%%CreationDate: 2019-07-25T13:57:37
%%Pages: (atend)
%%BoundingBox: 0 0 560 420
%%LanguageLevel: 3
%%EndComments
%%BeginProlog
%%BeginResource: procset (Apache XML Graphics Std ProcSet) 1.2 0
%%Version: 1.2 0
%%Copyright: (Copyright 2001-2003,2010 The Apache Software Foundation. License terms: http://www.apache.org/licenses/LICENSE-2.0)
/bd{bind def}bind def
/ld{load def}bd
/GR/grestore ld
/M/moveto ld
/LJ/setlinejoin ld
/C/curveto ld
/f/fill ld
/LW/setlinewidth ld
/GC/setgray ld
/t/show ld
/N/newpath ld
/CT/concat ld
/cp/closepath ld
/S/stroke ld
/L/lineto ld
/CC/setcmykcolor ld
/A/ashow ld
/GS/gsave ld
/RC/setrgbcolor ld
/RM/rmoveto ld
/ML/setmiterlimit ld
/re {4 2 roll M
1 index 0 rlineto
0 exch rlineto
neg 0 rlineto
cp } bd
/_ctm matrix def
/_tm matrix def
/BT { _ctm currentmatrix pop matrix _tm copy pop 0 0 moveto } bd
/ET { _ctm setmatrix } bd
/iTm { _ctm setmatrix _tm concat } bd
/Tm { _tm astore pop iTm 0 0 moveto } bd
/ux 0.0 def
/uy 0.0 def
/F {
  /Tp exch def
  /Tf exch def
  Tf findfont Tp scalefont setfont
  /cf Tf def  /cs Tp def
} bd
/ULS {currentpoint /uy exch def /ux exch def} bd
/ULE {
  /Tcx currentpoint pop def
  gsave
  newpath
  cf findfont cs scalefont dup
  /FontMatrix get 0 get /Ts exch def /FontInfo get dup
  /UnderlinePosition get Ts mul /To exch def
  /UnderlineThickness get Ts mul /Tt exch def
  ux uy To add moveto  Tcx uy To add lineto
  Tt setlinewidth stroke
  grestore
} bd
/OLE {
  /Tcx currentpoint pop def
  gsave
  newpath
  cf findfont cs scalefont dup
  /FontMatrix get 0 get /Ts exch def /FontInfo get dup
  /UnderlinePosition get Ts mul /To exch def
  /UnderlineThickness get Ts mul /Tt exch def
  ux uy To add cs add moveto Tcx uy To add cs add lineto
  Tt setlinewidth stroke
  grestore
} bd
/SOE {
  /Tcx currentpoint pop def
  gsave
  newpath
  cf findfont cs scalefont dup
  /FontMatrix get 0 get /Ts exch def /FontInfo get dup
  /UnderlinePosition get Ts mul /To exch def
  /UnderlineThickness get Ts mul /Tt exch def
  ux uy To add cs 10 mul 26 idiv add moveto Tcx uy To add cs 10 mul 26 idiv add lineto
  Tt setlinewidth stroke
  grestore
} bd
/QT {
/Y22 exch store
/X22 exch store
/Y21 exch store
/X21 exch store
currentpoint
/Y21 load 2 mul add 3 div exch
/X21 load 2 mul add 3 div exch
/X21 load 2 mul /X22 load add 3 div
/Y21 load 2 mul /Y22 load add 3 div
/X22 load /Y22 load curveto
} bd
/SSPD {
dup length /d exch dict def
{
/v exch def
/k exch def
currentpagedevice k known {
/cpdv currentpagedevice k get def
v cpdv ne {
/upd false def
/nullv v type /nulltype eq def
/nullcpdv cpdv type /nulltype eq def
nullv nullcpdv or
{
/upd true def
} {
/sametype v type cpdv type eq def
sametype {
v type /arraytype eq {
/vlen v length def
/cpdvlen cpdv length def
vlen cpdvlen eq {
0 1 vlen 1 sub {
/i exch def
/obj v i get def
/cpdobj cpdv i get def
obj cpdobj ne {
/upd true def
exit
} if
} for
} {
/upd true def
} ifelse
} {
v type /dicttype eq {
v {
/dv exch def
/dk exch def
/cpddv cpdv dk get def
dv cpddv ne {
/upd true def
exit
} if
} forall
} {
/upd true def
} ifelse
} ifelse
} if
} ifelse
upd true eq {
d k v put
} if
} if
} if
} forall
d length 0 gt {
d setpagedevice
} if
} bd
%%EndResource
%%BeginResource: procset (Apache XML Graphics EPS ProcSet) 1.0 0
%%Version: 1.0 0
%%Copyright: (Copyright 2002-2003 The Apache Software Foundation. License terms: http://www.apache.org/licenses/LICENSE-2.0)
/BeginEPSF { %def
/b4_Inc_state save def         % Save state for cleanup
/dict_count countdictstack def % Count objects on dict stack
/op_count count 1 sub def      % Count objects on operand stack
userdict begin                 % Push userdict on dict stack
/showpage { } def              % Redefine showpage, { } = null proc
0 setgray 0 setlinecap         % Prepare graphics state
1 setlinewidth 0 setlinejoin
10 setmiterlimit [ ] 0 setdash newpath
/languagelevel where           % If level not equal to 1 then
{pop languagelevel             % set strokeadjust and
1 ne                           % overprint to their defaults.
{false setstrokeadjust false setoverprint
} if
} if
} bd
/EndEPSF { %def
count op_count sub {pop} repeat            % Clean up stacks
countdictstack dict_count sub {end} repeat
b4_Inc_state restore
} bd
%%EndResource
%FOPBeginFontDict
%%IncludeResource: font Courier-Bold
%%IncludeResource: font Helvetica
%%IncludeResource: font Courier-BoldOblique
%%IncludeResource: font Courier-Oblique
%%IncludeResource: font Times-Roman
%%IncludeResource: font Helvetica-BoldOblique
%%IncludeResource: font Helvetica-Bold
%%IncludeResource: font Helvetica-Oblique
%%IncludeResource: font Times-BoldItalic
%%IncludeResource: font Courier
%%IncludeResource: font Times-Italic
%%IncludeResource: font Times-Bold
%%IncludeResource: font Symbol
%%IncludeResource: font ZapfDingbats
%FOPEndFontDict
%%BeginResource: encoding WinAnsiEncoding
/WinAnsiEncoding [
/.notdef /.notdef /.notdef /.notdef /.notdef
/.notdef /.notdef /.notdef /.notdef /.notdef
/.notdef /.notdef /.notdef /.notdef /.notdef
/.notdef /.notdef /.notdef /.notdef /.notdef
/.notdef /.notdef /.notdef /.notdef /.notdef
/.notdef /.notdef /.notdef /.notdef /.notdef
/.notdef /.notdef /space /exclam /quotedbl
/numbersign /dollar /percent /ampersand /quotesingle
/parenleft /parenright /asterisk /plus /comma
/hyphen /period /slash /zero /one
/two /three /four /five /six
/seven /eight /nine /colon /semicolon
/less /equal /greater /question /at
/A /B /C /D /E
/F /G /H /I /J
/K /L /M /N /O
/P /Q /R /S /T
/U /V /W /X /Y
/Z /bracketleft /backslash /bracketright /asciicircum
/underscore /quoteleft /a /b /c
/d /e /f /g /h
/i /j /k /l /m
/n /o /p /q /r
/s /t /u /v /w
/x /y /z /braceleft /bar
/braceright /asciitilde /bullet /Euro /bullet
/quotesinglbase /florin /quotedblbase /ellipsis /dagger
/daggerdbl /circumflex /perthousand /Scaron /guilsinglleft
/OE /bullet /Zcaron /bullet /bullet
/quoteleft /quoteright /quotedblleft /quotedblright /bullet
/endash /emdash /asciitilde /trademark /scaron
/guilsinglright /oe /bullet /zcaron /Ydieresis
/space /exclamdown /cent /sterling /currency
/yen /brokenbar /section /dieresis /copyright
/ordfeminine /guillemotleft /logicalnot /sfthyphen /registered
/macron /degree /plusminus /twosuperior /threesuperior
/acute /mu /paragraph /middot /cedilla
/onesuperior /ordmasculine /guillemotright /onequarter /onehalf
/threequarters /questiondown /Agrave /Aacute /Acircumflex
/Atilde /Adieresis /Aring /AE /Ccedilla
/Egrave /Eacute /Ecircumflex /Edieresis /Igrave
/Iacute /Icircumflex /Idieresis /Eth /Ntilde
/Ograve /Oacute /Ocircumflex /Otilde /Odieresis
/multiply /Oslash /Ugrave /Uacute /Ucircumflex
/Udieresis /Yacute /Thorn /germandbls /agrave
/aacute /acircumflex /atilde /adieresis /aring
/ae /ccedilla /egrave /eacute /ecircumflex
/edieresis /igrave /iacute /icircumflex /idieresis
/eth /ntilde /ograve /oacute /ocircumflex
/otilde /odieresis /divide /oslash /ugrave
/uacute /ucircumflex /udieresis /yacute /thorn
/ydieresis
] def
%%EndResource
%FOPBeginFontReencode
/Courier-Bold findfont
dup length dict begin
  {1 index /FID ne {def} {pop pop} ifelse} forall
  /Encoding WinAnsiEncoding def
  currentdict
end
/Courier-Bold exch definefont pop
/Helvetica findfont
dup length dict begin
  {1 index /FID ne {def} {pop pop} ifelse} forall
  /Encoding WinAnsiEncoding def
  currentdict
end
/Helvetica exch definefont pop
/Courier-BoldOblique findfont
dup length dict begin
  {1 index /FID ne {def} {pop pop} ifelse} forall
  /Encoding WinAnsiEncoding def
  currentdict
end
/Courier-BoldOblique exch definefont pop
/Courier-Oblique findfont
dup length dict begin
  {1 index /FID ne {def} {pop pop} ifelse} forall
  /Encoding WinAnsiEncoding def
  currentdict
end
/Courier-Oblique exch definefont pop
/Times-Roman findfont
dup length dict begin
  {1 index /FID ne {def} {pop pop} ifelse} forall
  /Encoding WinAnsiEncoding def
  currentdict
end
/Times-Roman exch definefont pop
/Helvetica-BoldOblique findfont
dup length dict begin
  {1 index /FID ne {def} {pop pop} ifelse} forall
  /Encoding WinAnsiEncoding def
  currentdict
end
/Helvetica-BoldOblique exch definefont pop
/Helvetica-Bold findfont
dup length dict begin
  {1 index /FID ne {def} {pop pop} ifelse} forall
  /Encoding WinAnsiEncoding def
  currentdict
end
/Helvetica-Bold exch definefont pop
/Helvetica-Oblique findfont
dup length dict begin
  {1 index /FID ne {def} {pop pop} ifelse} forall
  /Encoding WinAnsiEncoding def
  currentdict
end
/Helvetica-Oblique exch definefont pop
/Times-BoldItalic findfont
dup length dict begin
  {1 index /FID ne {def} {pop pop} ifelse} forall
  /Encoding WinAnsiEncoding def
  currentdict
end
/Times-BoldItalic exch definefont pop
/Courier findfont
dup length dict begin
  {1 index /FID ne {def} {pop pop} ifelse} forall
  /Encoding WinAnsiEncoding def
  currentdict
end
/Courier exch definefont pop
/Times-Italic findfont
dup length dict begin
  {1 index /FID ne {def} {pop pop} ifelse} forall
  /Encoding WinAnsiEncoding def
  currentdict
end
/Times-Italic exch definefont pop
/Times-Bold findfont
dup length dict begin
  {1 index /FID ne {def} {pop pop} ifelse} forall
  /Encoding WinAnsiEncoding def
  currentdict
end
/Times-Bold exch definefont pop
%FOPEndFontReencode
%%EndProlog
%%Page: 1 1
%%PageBoundingBox: 0 0 560 420
%%BeginPageSetup
[1 0 0 -1 0 420] CT
%%EndPageSetup
GS
1 GC
N
0 0 560 420 re
f
GR
GS
1 GC
N
0 0 560 420 re
f
GR
GS
1 GC
N
73 345.5 M
507 345.5 L
507 31.5 L
73 31.5 L
cp
f
GR
GS
0.149 GC
2 setlinecap
1 LJ
0.5 LW
N
73 345.5 M
507 345.5 L
S
GR
GS
0.149 GC
2 setlinecap
1 LJ
0.5 LW
N
73 31.5 M
507 31.5 L
S
GR
GS
0.149 GC
2 setlinecap
1 LJ
0.5 LW
N
104 345.5 M
104 341.16 L
S
GR
GS
0.149 GC
2 setlinecap
1 LJ
0.5 LW
N
166 345.5 M
166 341.16 L
S
GR
GS
0.149 GC
2 setlinecap
1 LJ
0.5 LW
N
228 345.5 M
228 341.16 L
S
GR
GS
0.149 GC
2 setlinecap
1 LJ
0.5 LW
N
290 345.5 M
290 341.16 L
S
GR
GS
0.149 GC
2 setlinecap
1 LJ
0.5 LW
N
352 345.5 M
352 341.16 L
S
GR
GS
0.149 GC
2 setlinecap
1 LJ
0.5 LW
N
414 345.5 M
414 341.16 L
S
GR
GS
0.149 GC
2 setlinecap
1 LJ
0.5 LW
N
476 345.5 M
476 341.16 L
S
GR
GS
0.149 GC
2 setlinecap
1 LJ
0.5 LW
N
104 31.5 M
104 35.84 L
S
GR
GS
0.149 GC
2 setlinecap
1 LJ
0.5 LW
N
166 31.5 M
166 35.84 L
S
GR
GS
0.149 GC
2 setlinecap
1 LJ
0.5 LW
N
228 31.5 M
228 35.84 L
S
GR
GS
0.149 GC
2 setlinecap
1 LJ
0.5 LW
N
290 31.5 M
290 35.84 L
S
GR
GS
0.149 GC
2 setlinecap
1 LJ
0.5 LW
N
352 31.5 M
352 35.84 L
S
GR
GS
0.149 GC
2 setlinecap
1 LJ
0.5 LW
N
414 31.5 M
414 35.84 L
S
GR
GS
0.149 GC
2 setlinecap
1 LJ
0.5 LW
N
476 31.5 M
476 35.84 L
S
GR
GS
[0.70711 -0.70711 0.70711 0.70711 104 349.5] CT
0.149 GC
/Helvetica 10 F
GS
[1 0 0 1 0 0] CT
-87 10 moveto 
1 -1 scale
(WoF2F&Colocation) t 
GR
GR
GS
[0.70711 -0.70711 0.70711 0.70711 166 349.5] CT
0.149 GC
/Helvetica 10 F
GS
[1 0 0 1 0 0] CT
-64 10 moveto 
1 -1 scale
(WoColocation) t 
GR
GR
GS
[0.70711 -0.70711 0.70711 0.70711 228 349.5] CT
0.149 GC
/Helvetica 10 F
GS
[1 0 0 1 0 0] CT
-33 10 moveto 
1 -1 scale
(WoF2F) t 
GR
GR
GS
[0.70711 -0.70711 0.70711 0.70711 290 349.5] CT
0.149 GC
/Helvetica 10 F
GS
[1 0 0 1 0 0] CT
-80 10 moveto 
1 -1 scale
(WoWhom&Where) t 
GR
GR
GS
[0.70711 -0.70711 0.70711 0.70711 352 349.5] CT
0.149 GC
/Helvetica 10 F
GS
[1 0 0 1 0 0] CT
-45 10 moveto 
1 -1 scale
(WoWhom) t 
GR
GR
GS
[0.70711 -0.70711 0.70711 0.70711 414 349.5] CT
0.149 GC
/Helvetica 10 F
GS
[1 0 0 1 0 0] CT
-44 10 moveto 
1 -1 scale
(WoWhere) t 
GR
GR
GS
[0.70711 -0.70711 0.70711 0.70711 476 349.5] CT
0.149 GC
/Helvetica 10 F
GS
[1 0 0 1 0 0] CT
-44 10 moveto 
1 -1 scale
(Proposed) t 
GR
GR
GS
0.149 GC
2 setlinecap
1 LJ
0.5 LW
N
73 345.5 M
73 31.5 L
S
GR
GS
0.149 GC
2 setlinecap
1 LJ
0.5 LW
N
507 345.5 M
507 31.5 L
S
GR
GS
0.149 GC
2 setlinecap
1 LJ
0.5 LW
N
73 320.548 M
77.34 320.548 L
S
GR
GS
0.149 GC
2 setlinecap
1 LJ
0.5 LW
N
73 271.63 M
77.34 271.63 L
S
GR
GS
0.149 GC
2 setlinecap
1 LJ
0.5 LW
N
73 222.712 M
77.34 222.712 L
S
GR
GS
0.149 GC
2 setlinecap
1 LJ
0.5 LW
N
73 173.793 M
77.34 173.793 L
S
GR
GS
0.149 GC
2 setlinecap
1 LJ
0.5 LW
N
73 124.875 M
77.34 124.875 L
S
GR
GS
0.149 GC
2 setlinecap
1 LJ
0.5 LW
N
73 75.956 M
77.34 75.956 L
S
GR
GS
0.149 GC
2 setlinecap
1 LJ
0.5 LW
N
507 320.548 M
502.66 320.548 L
S
GR
GS
0.149 GC
2 setlinecap
1 LJ
0.5 LW
N
507 271.63 M
502.66 271.63 L
S
GR
GS
0.149 GC
2 setlinecap
1 LJ
0.5 LW
N
507 222.712 M
502.66 222.712 L
S
GR
GS
0.149 GC
2 setlinecap
1 LJ
0.5 LW
N
507 173.793 M
502.66 173.793 L
S
GR
GS
0.149 GC
2 setlinecap
1 LJ
0.5 LW
N
507 124.875 M
502.66 124.875 L
S
GR
GS
0.149 GC
2 setlinecap
1 LJ
0.5 LW
N
507 75.956 M
502.66 75.956 L
S
GR
GS
[1 0 0 1 69 320.5484] CT
0.149 GC
/Helvetica 10 F
GS
[1 0 0 1 0 0] CT
-6 3.5 moveto 
1 -1 scale
(0) t 
GR
GR
GS
[1 0 0 1 69 271.63] CT
0.149 GC
/Helvetica 10 F
GS
[1 0 0 1 0 0] CT
-6 3.5 moveto 
1 -1 scale
(2) t 
GR
GR
GS
[1 0 0 1 69 222.71162] CT
0.149 GC
/Helvetica 10 F
GS
[1 0 0 1 0 0] CT
-6 3.5 moveto 
1 -1 scale
(4) t 
GR
GR
GS
[1 0 0 1 69 173.79326] CT
0.149 GC
/Helvetica 10 F
GS
[1 0 0 1 0 0] CT
-6 3.5 moveto 
1 -1 scale
(6) t 
GR
GR
GS
[1 0 0 1 69 124.87488] CT
0.149 GC
/Helvetica 10 F
GS
[1 0 0 1 0 0] CT
-6 3.5 moveto 
1 -1 scale
(8) t 
GR
GR
GS
[1 0 0 1 69 75.9565] CT
0.149 GC
/Helvetica 10 F
GS
[1 0 0 1 0 0] CT
-12 3.5 moveto 
1 -1 scale
(10) t 
GR
GR
GS
[0 -1 1 0 54.5 188.49986] CT
0.149 GC
/Helvetica 11 F
GS
[1 0 0 1 0 0] CT
-12 -3 moveto 
1 -1 scale
(MAE) t 
GR
GR
GS
[10 6] 0 setdash
2 LJ
0.5 LW
N
104 231.685 M
104 150.571 L
S
GR
GS
[10 6] 0 setdash
2 LJ
0.5 LW
N
166 234.175 M
166 178.567 L
S
GR
GS
[10 6] 0 setdash
2 LJ
0.5 LW
N
228 206.139 M
228 73.777 L
S
GR
GS
[10 6] 0 setdash
2 LJ
0.5 LW
N
290 233.111 M
290 189.241 L
S
GR
GS
[10 6] 0 setdash
2 LJ
0.5 LW
N
352 209.049 M
352 101.295 L
S
GR
GS
[10 6] 0 setdash
2 LJ
0.5 LW
N
414 252.283 M
414 238.485 L
S
GR
GS
[10 6] 0 setdash
2 LJ
0.5 LW
N
476 266.813 M
476 262.248 L
S
GR
GS
[10 6] 0 setdash
2 LJ
0.5 LW
N
104 319.619 M
104 313.1 L
S
GR
GS
[10 6] 0 setdash
2 LJ
0.5 LW
N
166 319.837 M
166 306.306 L
S
GR
GS
[10 6] 0 setdash
2 LJ
0.5 LW
N
228 317.16 M
228 310.357 L
S
GR
GS
[10 6] 0 setdash
2 LJ
0.5 LW
N
290 319.688 M
290 305.075 L
S
GR
GS
[10 6] 0 setdash
2 LJ
0.5 LW
N
352 316.067 M
352 284.306 L
S
GR
GS
[10 6] 0 setdash
2 LJ
0.5 LW
N
414 309.457 M
414 278.676 L
S
GR
GS
[10 6] 0 setdash
2 LJ
0.5 LW
N
476 315.735 M
476 307.334 L
S
GR
GS
1 LJ
0.5 LW
N
96.25 150.571 M
111.75 150.571 L
S
GR
GS
1 LJ
0.5 LW
N
158.25 178.567 M
173.75 178.567 L
S
GR
GS
1 LJ
0.5 LW
N
220.25 73.777 M
235.75 73.777 L
S
GR
GS
1 LJ
0.5 LW
N
282.25 189.241 M
297.75 189.241 L
S
GR
GS
1 LJ
0.5 LW
N
344.25 101.295 M
359.75 101.295 L
S
GR
GS
1 LJ
0.5 LW
N
406.25 238.485 M
421.75 238.485 L
S
GR
GS
1 LJ
0.5 LW
N
468.25 262.248 M
483.75 262.248 L
S
GR
GS
1 LJ
0.5 LW
N
96.25 319.619 M
111.75 319.619 L
S
GR
GS
1 LJ
0.5 LW
N
158.25 319.837 M
173.75 319.837 L
S
GR
GS
1 LJ
0.5 LW
N
220.25 317.16 M
235.75 317.16 L
S
GR
GS
1 LJ
0.5 LW
N
282.25 319.688 M
297.75 319.688 L
S
GR
GS
1 LJ
0.5 LW
N
344.25 316.067 M
359.75 316.067 L
S
GR
GS
1 LJ
0.5 LW
N
406.25 309.457 M
421.75 309.457 L
S
GR
GS
1 LJ
0.5 LW
N
468.25 315.735 M
483.75 315.735 L
S
GR
GS
0 0 1 RC
1 LJ
0.5 LW
N
88.5 313.1 M
88.5 231.685 L
119.5 231.685 L
119.5 313.1 L
88.5 313.1 L
S
GR
GS
0 0 1 RC
1 LJ
0.5 LW
N
150.5 306.306 M
150.5 234.175 L
181.5 234.175 L
181.5 306.306 L
150.5 306.306 L
S
GR
GS
0 0 1 RC
1 LJ
0.5 LW
N
212.5 310.357 M
212.5 206.139 L
243.5 206.139 L
243.5 310.357 L
212.5 310.357 L
S
GR
GS
0 0 1 RC
1 LJ
0.5 LW
N
274.5 305.075 M
274.5 233.111 L
305.5 233.111 L
305.5 305.075 L
274.5 305.075 L
S
GR
GS
0 0 1 RC
1 LJ
0.5 LW
N
336.5 284.306 M
336.5 209.049 L
367.5 209.049 L
367.5 284.306 L
336.5 284.306 L
S
GR
GS
0 0 1 RC
1 LJ
0.5 LW
N
398.5 278.676 M
398.5 252.283 L
429.5 252.283 L
429.5 278.676 L
398.5 278.676 L
S
GR
GS
0 0 1 RC
1 LJ
0.5 LW
N
460.5 307.334 M
460.5 266.813 L
491.5 266.813 L
491.5 307.334 L
460.5 307.334 L
S
GR
GS
1 0 0 RC
1 LJ
0.5 LW
N
88.5 278.563 M
119.5 278.563 L
S
GR
GS
1 0 0 RC
1 LJ
0.5 LW
N
150.5 266.108 M
181.5 266.108 L
S
GR
GS
1 0 0 RC
1 LJ
0.5 LW
N
212.5 285.847 M
243.5 285.847 L
S
GR
GS
1 0 0 RC
1 LJ
0.5 LW
N
274.5 264.303 M
305.5 264.303 L
S
GR
GS
1 0 0 RC
1 LJ
0.5 LW
N
336.5 252.694 M
367.5 252.694 L
S
GR
GS
1 0 0 RC
1 LJ
0.5 LW
N
398.5 267.388 M
429.5 267.388 L
S
GR
GS
1 0 0 RC
1 LJ
0.5 LW
N
460.5 279.813 M
491.5 279.813 L
S
GR
GS
0 0 1 RC
1 LJ
N
100 250.5 M
107 250.5 L
S
GR
GS
0 0 1 RC
1 LJ
N
103.5 254 M
103.5 247 L
S
GR
GS
0 0 1 RC
1 LJ
N
101 253 M
106 248 L
S
GR
GS
0 0 1 RC
1 LJ
N
101 248 M
106 253 L
S
GR
GS
0 0 1 RC
1 LJ
N
162 255.5 M
169 255.5 L
S
GR
GS
0 0 1 RC
1 LJ
N
165.5 259 M
165.5 252 L
S
GR
GS
0 0 1 RC
1 LJ
N
163 258 M
168 253 L
S
GR
GS
0 0 1 RC
1 LJ
N
163 253 M
168 258 L
S
GR
GS
0 0 1 RC
1 LJ
N
224 248.5 M
231 248.5 L
S
GR
GS
0 0 1 RC
1 LJ
N
227.5 252 M
227.5 245 L
S
GR
GS
0 0 1 RC
1 LJ
N
225 251 M
230 246 L
S
GR
GS
0 0 1 RC
1 LJ
N
225 246 M
230 251 L
S
GR
GS
0 0 1 RC
1 LJ
N
287 256.5 M
294 256.5 L
S
GR
GS
0 0 1 RC
1 LJ
N
290.5 260 M
290.5 253 L
S
GR
GS
0 0 1 RC
1 LJ
N
288 259 M
293 254 L
S
GR
GS
0 0 1 RC
1 LJ
N
288 254 M
293 259 L
S
GR
GS
0 0 1 RC
1 LJ
N
349 239.5 M
356 239.5 L
S
GR
GS
0 0 1 RC
1 LJ
N
352.5 243 M
352.5 236 L
S
GR
GS
0 0 1 RC
1 LJ
N
350 242 M
355 237 L
S
GR
GS
0 0 1 RC
1 LJ
N
350 237 M
355 242 L
S
GR
GS
0 0 1 RC
1 LJ
N
411 268.5 M
418 268.5 L
S
GR
GS
0 0 1 RC
1 LJ
N
414.5 272 M
414.5 265 L
S
GR
GS
0 0 1 RC
1 LJ
N
412 271 M
417 266 L
S
GR
GS
0 0 1 RC
1 LJ
N
412 266 M
417 271 L
S
GR
GS
0 0 1 RC
1 LJ
N
473 274.5 M
480 274.5 L
S
GR
GS
0 0 1 RC
1 LJ
N
476.5 278 M
476.5 271 L
S
GR
GS
0 0 1 RC
1 LJ
N
474 277 M
479 272 L
S
GR
GS
0 0 1 RC
1 LJ
N
474 272 M
479 277 L
S
GR
%%Trailer
%%Pages: 1
%%EOF
