PWD /Users/duan/git/m2thesis201907duan/acm_2column
INPUT /opt/local/etc/texmf/texmf.cnf
INPUT /opt/local/etc/texmf/texmf.cnf
INPUT /opt/local/var/db/texmf/web2c/eptex/platex.fmt
INPUT acm2column_duan.tex
OUTPUT acm2column_duan.log
INPUT sigchi.cls
INPUT sigchi.cls
INPUT /opt/local/share/texmf-texlive/tex/latex/graphics/graphicx.sty
INPUT /opt/local/share/texmf-texlive/tex/latex/graphics/graphicx.sty
INPUT /opt/local/share/texmf-texlive/tex/latex/graphics/keyval.sty
INPUT /opt/local/share/texmf-texlive/tex/latex/graphics/keyval.sty
INPUT /opt/local/share/texmf-texlive/tex/latex/graphics/graphics.sty
INPUT /opt/local/share/texmf-texlive/tex/latex/graphics/graphics.sty
INPUT /opt/local/share/texmf-texlive/tex/latex/graphics/trig.sty
INPUT /opt/local/share/texmf-texlive/tex/latex/graphics/trig.sty
INPUT /opt/local/share/texmf-texlive/tex/latex/graphics-cfg/graphics.cfg
INPUT /opt/local/share/texmf-texlive/tex/latex/graphics-cfg/graphics.cfg
INPUT /opt/local/share/texmf-texlive/tex/latex/graphics-def/dvipdfmx.def
INPUT /opt/local/share/texmf-texlive/tex/latex/graphics-def/dvipdfmx.def
INPUT /opt/local/share/texmf-texlive/tex/latex/amsfonts/amssymb.sty
INPUT /opt/local/share/texmf-texlive/tex/latex/amsfonts/amssymb.sty
INPUT /opt/local/share/texmf-texlive/tex/latex/amsfonts/amsfonts.sty
INPUT /opt/local/share/texmf-texlive/tex/latex/amsfonts/amsfonts.sty
INPUT /opt/local/share/texmf-texlive/tex/latex/amsmath/amsmath.sty
INPUT /opt/local/share/texmf-texlive/tex/latex/amsmath/amsmath.sty
INPUT /opt/local/share/texmf-texlive/tex/latex/amsmath/amstext.sty
INPUT /opt/local/share/texmf-texlive/tex/latex/amsmath/amstext.sty
INPUT /opt/local/share/texmf-texlive/tex/latex/amsmath/amsgen.sty
INPUT /opt/local/share/texmf-texlive/tex/latex/amsmath/amsgen.sty
INPUT /opt/local/share/texmf-texlive/tex/latex/amsmath/amsbsy.sty
INPUT /opt/local/share/texmf-texlive/tex/latex/amsmath/amsbsy.sty
INPUT /opt/local/share/texmf-texlive/tex/latex/amsmath/amsopn.sty
INPUT /opt/local/share/texmf-texlive/tex/latex/amsmath/amsopn.sty
INPUT /opt/local/share/texmf-texlive/fonts/map/fontname/texfonts.map
INPUT /opt/local/share/texmf-texlive/fonts/tfm/adobe/helvetic/phvb7t.tfm
INPUT /opt/local/share/texmf-texlive/fonts/tfm/adobe/helvetic/phvbo7t.tfm
INPUT /opt/local/share/texmf-texlive/fonts/tfm/adobe/helvetic/phvro7t.tfm
INPUT /opt/local/share/texmf-texlive/fonts/tfm/adobe/helvetic/phvr7t.tfm
INPUT /opt/local/share/texmf-texlive/fonts/tfm/adobe/helvetic/phvb7t.tfm
INPUT /opt/local/share/texmf-texlive/fonts/tfm/adobe/helvetic/phvbo7t.tfm
INPUT /opt/local/share/texmf-texlive/fonts/tfm/adobe/helvetic/phvr7t.tfm
INPUT /opt/local/share/texmf-texlive/fonts/tfm/adobe/helvetic/phvro7t.tfm
INPUT /opt/local/share/texmf-texlive/fonts/tfm/adobe/helvetic/phvb7t.tfm
INPUT /opt/local/share/texmf-texlive/fonts/tfm/adobe/times/ptmb7t.tfm
INPUT /opt/local/share/texmf-texlive/fonts/tfm/adobe/times/ptmbo7t.tfm
INPUT /opt/local/share/texmf-texlive/fonts/tfm/adobe/times/ptmr7t.tfm
INPUT /opt/local/share/texmf-texlive/fonts/tfm/adobe/times/ptmro7t.tfm
INPUT /opt/local/share/texmf-texlive/fonts/tfm/adobe/times/ptmr7t.tfm
INPUT /opt/local/share/texmf-texlive/fonts/tfm/adobe/times/ptmri7t.tfm
INPUT /opt/local/share/texmf-texlive/fonts/tfm/adobe/times/ptmr7t.tfm
INPUT /opt/local/share/texmf-texlive/tex/latex/base/latexsym.sty
INPUT /opt/local/share/texmf-texlive/tex/latex/base/latexsym.sty
INPUT /opt/local/share/texmf-texlive/tex/latex/preprint/balance.sty
INPUT /opt/local/share/texmf-texlive/tex/latex/preprint/balance.sty
INPUT /opt/local/share/texmf-texlive/tex/latex/psnfss/times.sty
INPUT /opt/local/share/texmf-texlive/tex/latex/psnfss/times.sty
INPUT /opt/local/share/texmf-texlive/tex/latex/url/url.sty
INPUT /opt/local/share/texmf-texlive/tex/latex/url/url.sty
INPUT /opt/local/share/texmf-texlive/tex/latex/tools/bm.sty
INPUT /opt/local/share/texmf-texlive/tex/latex/tools/bm.sty
INPUT /opt/local/share/texmf-texlive/tex/latex/stmaryrd/stmaryrd.sty
INPUT /opt/local/share/texmf-texlive/tex/latex/stmaryrd/stmaryrd.sty
INPUT /opt/local/share/texmf-texlive/tex/latex/here/here.sty
INPUT /opt/local/share/texmf-texlive/tex/latex/here/here.sty
INPUT /opt/local/share/texmf-texlive/tex/latex/float/float.sty
INPUT /opt/local/share/texmf-texlive/tex/latex/float/float.sty
INPUT /opt/local/share/texmf-texlive/tex/platex/japanese-otf-uptex/otf.sty
INPUT /opt/local/share/texmf-texlive/tex/platex/japanese-otf-uptex/otf.sty
INPUT /opt/local/share/texmf-texlive/tex/platex/japanese-otf/ajmacros.sty
INPUT /opt/local/share/texmf-texlive/tex/platex/japanese-otf/ajmacros.sty
INPUT /opt/local/share/texmf-texlive/tex/platex/japanese-otf/ajmacros.sty
INPUT /opt/local/share/texmf-texlive/tex/latex/multirow/multirow.sty
INPUT /opt/local/share/texmf-texlive/tex/latex/multirow/multirow.sty
INPUT /opt/local/share/texmf-texlive/tex/latex/tools/verbatim.sty
INPUT /opt/local/share/texmf-texlive/tex/latex/tools/verbatim.sty
INPUT /opt/local/share/texmf-texlive/tex/latex/graphics/color.sty
INPUT /opt/local/share/texmf-texlive/tex/latex/graphics/color.sty
INPUT /opt/local/share/texmf-texlive/tex/latex/graphics-cfg/color.cfg
INPUT /opt/local/share/texmf-texlive/tex/latex/graphics-cfg/color.cfg
INPUT /opt/local/share/texmf-texlive/tex/latex/graphics/dvipsnam.def
INPUT /opt/local/share/texmf-texlive/tex/latex/graphics/dvipsnam.def
INPUT /opt/local/share/texmf-texlive/tex/latex/datetime/datetime.sty
INPUT /opt/local/share/texmf-texlive/tex/latex/datetime/datetime.sty
INPUT /opt/local/share/texmf-texlive/tex/latex/etoolbox/etoolbox.sty
INPUT /opt/local/share/texmf-texlive/tex/latex/etoolbox/etoolbox.sty
INPUT /opt/local/share/texmf-texlive/tex/latex/fmtcount/fmtcount.sty
INPUT /opt/local/share/texmf-texlive/tex/latex/fmtcount/fmtcount.sty
INPUT /opt/local/share/texmf-texlive/tex/latex/base/ifthen.sty
INPUT /opt/local/share/texmf-texlive/tex/latex/base/ifthen.sty
INPUT /opt/local/share/texmf-texlive/tex/latex/xkeyval/xkeyval.sty
INPUT /opt/local/share/texmf-texlive/tex/latex/xkeyval/xkeyval.sty
INPUT /opt/local/share/texmf-texlive/tex/generic/xkeyval/xkeyval.tex
INPUT /opt/local/share/texmf-texlive/tex/generic/xkeyval/xkvutils.tex
INPUT /opt/local/share/texmf-texlive/tex/latex/fmtcount/fcprefix.sty
INPUT /opt/local/share/texmf-texlive/tex/latex/fmtcount/fcprefix.sty
INPUT /opt/local/share/texmf-texlive/tex/latex/fmtcount/fcnumparser.sty
INPUT /opt/local/share/texmf-texlive/tex/latex/fmtcount/fcnumparser.sty
INPUT /opt/local/share/texmf-texlive/tex/latex/datetime/datetime-defaults.sty
INPUT /opt/local/share/texmf-texlive/tex/latex/datetime/datetime-defaults.sty
INPUT algorithm.sty
INPUT algorithm.sty
INPUT algorithmic.sty
INPUT algorithmic.sty
INPUT /opt/local/share/texmf-texlive/tex/latex/hyperref/hyperref.sty
INPUT /opt/local/share/texmf-texlive/tex/latex/hyperref/hyperref.sty
INPUT /opt/local/share/texmf-texlive/tex/generic/oberdiek/hobsub-hyperref.sty
INPUT /opt/local/share/texmf-texlive/tex/generic/oberdiek/hobsub-hyperref.sty
INPUT /opt/local/share/texmf-texlive/tex/generic/oberdiek/hobsub-hyperref.sty
INPUT /opt/local/share/texmf-texlive/tex/generic/oberdiek/hobsub-generic.sty
INPUT /opt/local/share/texmf-texlive/tex/generic/oberdiek/hobsub-generic.sty
INPUT /opt/local/share/texmf-texlive/tex/generic/ifxetex/ifxetex.sty
INPUT /opt/local/share/texmf-texlive/tex/generic/ifxetex/ifxetex.sty
INPUT /opt/local/share/texmf-texlive/tex/latex/oberdiek/auxhook.sty
INPUT /opt/local/share/texmf-texlive/tex/latex/oberdiek/auxhook.sty
INPUT /opt/local/share/texmf-texlive/tex/latex/oberdiek/kvoptions.sty
INPUT /opt/local/share/texmf-texlive/tex/latex/oberdiek/kvoptions.sty
INPUT /opt/local/share/texmf-texlive/tex/latex/hyperref/pd1enc.def
INPUT /opt/local/share/texmf-texlive/tex/latex/hyperref/pd1enc.def
INPUT /opt/local/share/texmf-texlive/tex/latex/latexconfig/hyperref.cfg
INPUT /opt/local/share/texmf-texlive/tex/latex/latexconfig/hyperref.cfg
INPUT /opt/local/share/texmf-texlive/tex/latex/hyperref/hdvipdfm.def
INPUT /opt/local/share/texmf-texlive/tex/latex/hyperref/hdvipdfm.def
INPUT /opt/local/share/texmf-texlive/tex/latex/oberdiek/rerunfilecheck.sty
INPUT /opt/local/share/texmf-texlive/tex/latex/oberdiek/rerunfilecheck.sty
INPUT /opt/local/share/texmf-texlive/tex/platex/pxjahyper/pxjahyper.sty
INPUT /opt/local/share/texmf-texlive/tex/platex/pxjahyper/pxjahyper.sty
INPUT acm2column_duan.aux
INPUT acm2column_duan.aux
OUTPUT acm2column_duan.aux
INPUT /opt/local/share/texmf-texlive/tex/latex/psnfss/omlptm.fd
INPUT /opt/local/share/texmf-texlive/tex/latex/psnfss/t1ptm.fd
INPUT /opt/local/share/texmf-texlive/tex/latex/psnfss/ot1ptm.fd
INPUT /opt/local/share/texmf-texlive/tex/latex/psnfss/omsptm.fd
INPUT /opt/local/share/texmf-texlive/tex/latex/psnfss/ts1ptm.fd
INPUT /opt/local/share/texmf-texlive/fonts/tfm/public/japanese-otf/nmlminr-v.tfm
INPUT /opt/local/share/texmf-texlive/fonts/tfm/public/japanese-otf/nmlminr-h.tfm
INPUT /opt/local/share/texmf-texlive/tex/latex/psnfss/ot1ptm.fd
INPUT /opt/local/share/texmf-texlive/tex/latex/psnfss/ot1ptm.fd
INPUT /opt/local/share/texmf-texlive/tex/latex/fmtcount/fc-english.def
INPUT /opt/local/share/texmf-texlive/tex/latex/fmtcount/fc-english.def
INPUT /opt/local/share/texmf-texlive/tex/latex/hyperref/nameref.sty
INPUT /opt/local/share/texmf-texlive/tex/latex/hyperref/nameref.sty
INPUT /opt/local/share/texmf-texlive/tex/generic/oberdiek/gettitlestring.sty
INPUT /opt/local/share/texmf-texlive/tex/generic/oberdiek/gettitlestring.sty
INPUT acm2column_duan.out
INPUT acm2column_duan.out
INPUT acm2column_duan.out
INPUT acm2column_duan.out
INPUT ./acm2column_duan.out
INPUT ./acm2column_duan.out
OUTPUT acm2column_duan.out
INPUT /opt/local/share/texmf-texlive/fonts/tfm/public/amsfonts/cmextra/cmex7.tfm
INPUT /opt/local/share/texmf-texlive/fonts/tfm/public/amsfonts/cmextra/cmex7.tfm
INPUT /opt/local/share/texmf-texlive/tex/latex/amsfonts/umsa.fd
INPUT /opt/local/share/texmf-texlive/tex/latex/amsfonts/umsa.fd
INPUT /opt/local/share/texmf-texlive/fonts/tfm/public/amsfonts/symbols/msam10.tfm
INPUT /opt/local/share/texmf-texlive/fonts/tfm/public/amsfonts/symbols/msam7.tfm
INPUT /opt/local/share/texmf-texlive/fonts/tfm/public/amsfonts/symbols/msam5.tfm
INPUT /opt/local/share/texmf-texlive/tex/latex/amsfonts/umsb.fd
INPUT /opt/local/share/texmf-texlive/tex/latex/amsfonts/umsb.fd
INPUT /opt/local/share/texmf-texlive/fonts/tfm/public/amsfonts/symbols/msbm10.tfm
INPUT /opt/local/share/texmf-texlive/fonts/tfm/public/amsfonts/symbols/msbm7.tfm
INPUT /opt/local/share/texmf-texlive/fonts/tfm/public/amsfonts/symbols/msbm5.tfm
INPUT /opt/local/share/texmf-texlive/tex/latex/base/ulasy.fd
INPUT /opt/local/share/texmf-texlive/tex/latex/base/ulasy.fd
INPUT /opt/local/share/texmf-texlive/fonts/tfm/public/latex-fonts/lasy10.tfm
INPUT /opt/local/share/texmf-texlive/fonts/tfm/public/latex-fonts/lasy7.tfm
INPUT /opt/local/share/texmf-texlive/fonts/tfm/public/latex-fonts/lasy5.tfm
INPUT /opt/local/share/texmf-texlive/fonts/tfm/public/cm/cmbx10.tfm
INPUT /opt/local/share/texmf-texlive/fonts/tfm/public/cm/cmbx7.tfm
INPUT /opt/local/share/texmf-texlive/fonts/tfm/public/cm/cmbx5.tfm
INPUT /opt/local/share/texmf-texlive/fonts/tfm/public/cm/cmmib10.tfm
INPUT /opt/local/share/texmf-texlive/fonts/tfm/public/amsfonts/cmextra/cmmib7.tfm
INPUT /opt/local/share/texmf-texlive/fonts/tfm/public/amsfonts/cmextra/cmmib5.tfm
INPUT /opt/local/share/texmf-texlive/fonts/tfm/public/cm/cmbsy10.tfm
INPUT /opt/local/share/texmf-texlive/fonts/tfm/public/amsfonts/cmextra/cmbsy7.tfm
INPUT /opt/local/share/texmf-texlive/fonts/tfm/public/amsfonts/cmextra/cmbsy5.tfm
INPUT /opt/local/share/texmf-texlive/fonts/tfm/public/latex-fonts/lasyb10.tfm
INPUT /opt/local/share/texmf-texlive/tex/latex/stmaryrd/Ustmry.fd
INPUT /opt/local/share/texmf-texlive/tex/latex/stmaryrd/Ustmry.fd
INPUT /opt/local/share/texmf-texlive/fonts/tfm/public/stmaryrd/stmary10.tfm
INPUT /opt/local/share/texmf-texlive/fonts/tfm/public/stmaryrd/stmary7.tfm
INPUT /opt/local/share/texmf-texlive/fonts/tfm/public/stmaryrd/stmary5.tfm
INPUT /opt/local/share/texmf-texlive/fonts/tfm/public/japanese-otf/nmlminr-v.tfm
INPUT /opt/local/share/texmf-texlive/fonts/tfm/public/japanese-otf/nmlminr-h.tfm
INPUT /opt/local/share/texmf-texlive/fonts/tfm/adobe/times/ptmr7t.tfm
INPUT tex/abst.tex
INPUT tex/abst.tex
INPUT /opt/local/share/texmf-texlive/fonts/tfm/public/japanese-otf/nmlminr-v.tfm
INPUT /opt/local/share/texmf-texlive/fonts/tfm/public/japanese-otf/nmlminr-h.tfm
INPUT /opt/local/share/texmf-texlive/fonts/tfm/public/japanese-otf/nmlgothr-v.tfm
INPUT /opt/local/share/texmf-texlive/fonts/tfm/public/japanese-otf/nmlgothr-h.tfm
INPUT /opt/local/share/texmf-texlive/fonts/tfm/adobe/times/ptmb7t.tfm
INPUT /opt/local/share/texmf-texlive/tex/latex/psnfss/omlpcr.fd
INPUT /opt/local/share/texmf-texlive/tex/latex/psnfss/t1pcr.fd
INPUT /opt/local/share/texmf-texlive/tex/latex/psnfss/ot1pcr.fd
INPUT /opt/local/share/texmf-texlive/tex/latex/psnfss/omspcr.fd
INPUT /opt/local/share/texmf-texlive/tex/latex/psnfss/ts1pcr.fd
INPUT /opt/local/share/texmf-texlive/tex/latex/psnfss/ot1pcr.fd
INPUT /opt/local/share/texmf-texlive/tex/latex/psnfss/ot1pcr.fd
INPUT /opt/local/share/texmf-texlive/fonts/tfm/adobe/courier/pcrb7t.tfm
INPUT /opt/local/share/texmf-texlive/fonts/tfm/public/cm/cmr8.tfm
INPUT /opt/local/share/texmf-texlive/fonts/tfm/public/cm/cmr6.tfm
INPUT /opt/local/share/texmf-texlive/fonts/tfm/public/cm/cmmi8.tfm
INPUT /opt/local/share/texmf-texlive/fonts/tfm/public/cm/cmmi6.tfm
INPUT /opt/local/share/texmf-texlive/fonts/tfm/public/cm/cmsy8.tfm
INPUT /opt/local/share/texmf-texlive/fonts/tfm/public/cm/cmsy6.tfm
INPUT /opt/local/share/texmf-texlive/fonts/tfm/public/amsfonts/cmextra/cmex8.tfm
INPUT /opt/local/share/texmf-texlive/fonts/tfm/public/amsfonts/cmextra/cmex7.tfm
INPUT /opt/local/share/texmf-texlive/fonts/tfm/public/amsfonts/symbols/msam10.tfm
INPUT /opt/local/share/texmf-texlive/fonts/tfm/public/amsfonts/symbols/msam7.tfm
INPUT /opt/local/share/texmf-texlive/fonts/tfm/public/amsfonts/symbols/msbm10.tfm
INPUT /opt/local/share/texmf-texlive/fonts/tfm/public/amsfonts/symbols/msbm7.tfm
INPUT /opt/local/share/texmf-texlive/fonts/tfm/public/latex-fonts/lasy8.tfm
INPUT /opt/local/share/texmf-texlive/fonts/tfm/public/latex-fonts/lasy6.tfm
INPUT /opt/local/share/texmf-texlive/fonts/tfm/public/cm/cmbx8.tfm
INPUT /opt/local/share/texmf-texlive/fonts/tfm/public/cm/cmbx6.tfm
INPUT /opt/local/share/texmf-texlive/fonts/tfm/public/amsfonts/cmextra/cmmib8.tfm
INPUT /opt/local/share/texmf-texlive/fonts/tfm/public/amsfonts/cmextra/cmmib6.tfm
INPUT /opt/local/share/texmf-texlive/fonts/tfm/public/amsfonts/cmextra/cmbsy8.tfm
INPUT /opt/local/share/texmf-texlive/fonts/tfm/public/amsfonts/cmextra/cmbsy6.tfm
INPUT /opt/local/share/texmf-texlive/fonts/tfm/public/stmaryrd/stmary8.tfm
INPUT /opt/local/share/texmf-texlive/fonts/tfm/public/stmaryrd/stmary6.tfm
INPUT tex/main.tex
INPUT tex/main.tex
OUTPUT acm2column_duan.dvi
INPUT /opt/local/share/texmf-texlive/fonts/tfm/public/cm/cmss10.tfm
INPUT /opt/local/share/texmf-texlive/fonts/tfm/public/cm/cmss8.tfm
INPUT /opt/local/share/texmf-texlive/fonts/tfm/public/cm/cmss8.tfm
INPUT images/pipeline_locationIndex.pdf
INPUT images/pipeline_locationIndex.xbb
INPUT images/pipeline.pdf
INPUT images/pipeline.xbb
INPUT images/RoomLayout.pdf
INPUT images/RoomLayout.xbb
INPUT images/sociometric_badge.jpg
INPUT images/sociometric_badge.xbb
INPUT images/jobType1and2Relation.pdf
INPUT images/jobType1and2Relation.xbb
INPUT images/KPI_pariWisePlot.pdf
INPUT images/KPI_pariWisePlot.xbb
INPUT /opt/local/share/texmf-texlive/fonts/tfm/public/japanese-otf/nmlgothr-v.tfm
INPUT /opt/local/share/texmf-texlive/fonts/tfm/public/japanese-otf/nmlgothr-h.tfm
INPUT /opt/local/share/texmf-texlive/fonts/tfm/adobe/times/ptmb7t.tfm
INPUT images/f2f_network.pdf
INPUT images/f2f_network.xbb
INPUT images/projected_RSSI.pdf
INPUT images/projected_RSSI.xbb
INPUT images/boxPlot.pdf
INPUT images/boxPlot.xbb
INPUT tex/acknowledgement.tex
INPUT tex/acknowledgement.tex
INPUT acm2column_duan.bbl
INPUT acm2column_duan.bbl
INPUT /opt/local/share/texmf-texlive/fonts/tfm/adobe/times/ptmri7t.tfm
INPUT acm2column_duan.aux
INPUT ./acm2column_duan.out
INPUT ./acm2column_duan.out
