\relax 
\providecommand\hyper@newdestlabel[2]{}
\providecommand\HyperFirstAtBeginDocument{\AtBeginDocument}
\HyperFirstAtBeginDocument{\ifx\hyper@anchor\@undefined
\global\let\oldcontentsline\contentsline
\gdef\contentsline#1#2#3#4{\oldcontentsline{#1}{#2}{#3}}
\global\let\oldnewlabel\newlabel
\gdef\newlabel#1#2{\newlabelxx{#1}#2}
\gdef\newlabelxx#1#2#3#4#5#6{\oldnewlabel{#1}{{#2}{#3}}}
\AtEndDocument{\ifx\hyper@anchor\@undefined
\let\contentsline\oldcontentsline
\let\newlabel\oldnewlabel
\fi}
\fi}
\global\let\hyper@last\relax 
\gdef\HyperFirstAtBeginDocument#1{#1}
\citation{ref11}
\citation{questionnaire2}
\citation{questionnaire3}
\citation{ref1}
\citation{ref3}
\citation{ref4}
\citation{ref5}
\citation{ref12}
\citation{ref13}
\citation{ref1}
\citation{ref2}
\citation{ref3}
\citation{ref4}
\citation{ref5}
\citation{ref9}
\citation{ref12}
\citation{ref13}
\citation{ref2}
\citation{ref16}
\citation{mentalHealth}
\citation{health2}
\citation{health3}
\citation{health4}
\citation{workSatisfication}
\citation{l21}
\citation{rMTFL}
\citation{multi3}
\citation{multi4}
\citation{multi5}
\@writefile{toc}{\contentsline {section}{\numberline {1}Introduction}{\thepage }{section.1}}
\citation{ref11}
\citation{stress}
\citation{mentalHealth}
\citation{health1}
\citation{health2}
\citation{health3}
\citation{health4}
\citation{workSatisfication}
\citation{ref1}
\citation{ref3}
\citation{ref4}
\citation{ref5}
\citation{ref12}
\citation{ref13}
\citation{ref4}
\citation{ref2}
\citation{ref4}
\citation{ref5}
\citation{ref6}
\citation{ref9}
\citation{ref5}
\citation{ref9}
\citation{ref7}
\citation{ref9}
\citation{ref6}
\citation{ref12}
\citation{mentalHealth}
\citation{ref2}
\citation{health2}
\citation{health3}
\citation{health4}
\citation{lasso}
\citation{multi5}
\citation{multi3}
\citation{jaques2017predicting}
\@writefile{toc}{\contentsline {section}{\numberline {2}Related work}{\thepage }{section.2}}
\citation{mentalHealth}
\citation{ref2}
\citation{health2}
\citation{ref8}
\@writefile{toc}{\contentsline {section}{\numberline {3}Problem setting for work performance prediction}{\thepage }{section.3}}
\@writefile{toc}{\contentsline {subsection}{\numberline {3.1}Linear regression based work performance prediction}{\thepage }{subsection.3.1}}
\newlabel{eq:1}{{1}{\thepage }{Linear regression based work performance prediction}{equation.3.1}{}}
\newlabel{eq:2}{{2}{\thepage }{Linear regression based work performance prediction}{equation.3.2}{}}
\@writefile{toc}{\contentsline {subsection}{\numberline {3.2}Limitation of the baseline model}{\thepage }{subsection.3.2}}
\@writefile{toc}{\contentsline {section}{\numberline {4}Designing feature descriptors}{\thepage }{section.4}}
\@writefile{toc}{\contentsline {subsection}{\numberline {4.1}Movement features}{\thepage }{subsection.4.1}}
\@writefile{toc}{\contentsline {subsection}{\numberline {4.2}Location and Colocation features}{\thepage }{subsection.4.2}}
\citation{ref14}
\@writefile{lot}{\contentsline {table}{\numberline {1}{\ignorespaces Feature descriptor with multi-modal communication features}}{\thepage }{table.1}}
\newlabel{tab:featureList}{{1}{\thepage }{Feature descriptor with multi-modal communication features}{table.1}{}}
\newlabel{eq:3}{{3}{\thepage }{Location and Colocation features}{equation.4.3}{}}
\newlabel{eq:5}{{4}{\thepage }{Location and Colocation features}{equation.4.4}{}}
\newlabel{eq:4}{{5}{\thepage }{Location and Colocation features}{equation.4.5}{}}
\@writefile{lof}{\contentsline {figure}{\numberline {1}{\ignorespaces The pipeline of inferring location index: We count average RSSI vector every five minutes, and project the vector to a new feature space by a kernel PCA(Principal Component Analysis) model. The final location index is inferred from a GMM(Gaussian Mixture Model).}}{\thepage }{figure.1}}
\newlabel{fig:figure2}{{1}{\thepage }{The pipeline of inferring location index: We count average RSSI vector every five minutes, and project the vector to a new feature space by a kernel PCA(Principal Component Analysis) model. The final location index is inferred from a GMM(Gaussian Mixture Model)}{figure.1}{}}
\newlabel{eq:6}{{6}{\thepage }{Location and Colocation features}{equation.4.6}{}}
\newlabel{eq:7}{{7}{\thepage }{Location and Colocation features}{equation.4.7}{}}
\@writefile{toc}{\contentsline {subsection}{\numberline {4.3}Face to face communication features}{\thepage }{subsection.4.3}}
\citation{l21}
\citation{l21Origin}
\@writefile{toc}{\contentsline {section}{\numberline {5}Multitask KPI regression with group lasso}{\thepage }{section.5}}
\newlabel{eq:normalization}{{8}{\thepage }{Multitask KPI regression with group lasso}{equation.5.8}{}}
\newlabel{eq:l21}{{9}{\thepage }{Multitask KPI regression with group lasso}{equation.5.9}{}}
\newlabel{eq:normalization}{{10}{\thepage }{Multitask KPI regression with group lasso}{equation.5.10}{}}
\@writefile{toc}{\contentsline {section}{\numberline {6}Experiment Result}{\thepage }{section.6}}
\@writefile{toc}{\contentsline {subsection}{\numberline {6.1}Motivation of the Experiment}{\thepage }{subsection.6.1}}
\@writefile{lof}{\contentsline {figure}{\numberline {2}{\ignorespaces The pipeline of this work contains three parts: A. Data collection from sociometric badges; B. Extract features from raw sensor data, we focus on the communication features; C. Train a lasso regression model to predict numeric work performance with different modalities of communication features.}}{\thepage }{figure.2}}
\newlabel{fig:figure1}{{2}{\thepage }{The pipeline of this work contains three parts: A. Data collection from sociometric badges; B. Extract features from raw sensor data, we focus on the communication features; C. Train a lasso regression model to predict numeric work performance with different modalities of communication features}{figure.2}{}}
\@writefile{toc}{\contentsline {subsection}{\numberline {6.2}Raw sensor and KPI Dataset}{\thepage }{subsection.6.2}}
\@writefile{lof}{\contentsline {figure}{\numberline {3}{\ignorespaces Room layout of the office.}}{\thepage }{figure.3}}
\newlabel{fig:figure3}{{3}{\thepage }{Room layout of the office}{figure.3}{}}
\@writefile{lof}{\contentsline {figure}{\numberline {4}{\ignorespaces sociometric badge used in this study.}}{\thepage }{figure.4}}
\newlabel{fig:sensor}{{4}{\thepage }{sociometric badge used in this study}{figure.4}{}}
\@writefile{toc}{\contentsline {subsection}{\numberline {6.3}Feature descriptors for comparison}{\thepage }{subsection.6.3}}
\@writefile{lof}{\contentsline {figure}{\numberline {5}{\ignorespaces The relationship between job type 1 and job type 2.}}{\thepage }{figure.5}}
\newlabel{fig:relaitonOfJobType}{{5}{\thepage }{The relationship between job type 1 and job type 2}{figure.5}{}}
\@writefile{lot}{\contentsline {table}{\numberline {2}{\ignorespaces Structure of the organization}}{\thepage }{table.2}}
\newlabel{tab:table2}{{2}{\thepage }{Structure of the organization}{table.2}{}}
\@writefile{lot}{\contentsline {table}{\numberline {3}{\ignorespaces Attributes of raw sensor data}}{\thepage }{table.3}}
\newlabel{tab:raw sensor data}{{3}{\thepage }{Attributes of raw sensor data}{table.3}{}}
\@writefile{lot}{\contentsline {table}{\numberline {4}{\ignorespaces The meaning and distribution of the four KPIs}}{\thepage }{table.4}}
\newlabel{tab:KPI}{{4}{\thepage }{The meaning and distribution of the four KPIs}{table.4}{}}
\@writefile{lof}{\contentsline {figure}{\numberline {6}{\ignorespaces Pair wise plot of different KPIs and Pearson's R-value between each pair of KPIs.}}{\thepage }{figure.6}}
\newlabel{fig:KPIs}{{6}{\thepage }{Pair wise plot of different KPIs and Pearson's R-value between each pair of KPIs}{figure.6}{}}
\citation{pearson}
\citation{ref15}
\@writefile{toc}{\contentsline {subsection}{\numberline {6.4}Regression models for comparison}{\thepage }{subsection.6.4}}
\@writefile{toc}{\contentsline {subsection}{\numberline {6.5}Evaluation metric}{\thepage }{subsection.6.5}}
\newlabel{eq:MAE}{{11}{\thepage }{Evaluation metric}{equation.6.11}{}}
\@writefile{toc}{\contentsline {subsection}{\numberline {6.6}Result and discussion}{\thepage }{subsection.6.6}}
\@writefile{toc}{\contentsline {subsubsection}{\numberline {6.6.1}Visualization of communication dataset}{\thepage }{subsubsection.6.6.1}}
\@writefile{lof}{\contentsline {figure}{\numberline {7}{\ignorespaces F2F social network. Different color represents different team, each node is an employee, and width of each edge represents communication times}}{\thepage }{figure.7}}
\newlabel{fig:figure4}{{7}{\thepage }{F2F social network. Different color represents different team, each node is an employee, and width of each edge represents communication times}{figure.7}{}}
\@writefile{lof}{\contentsline {figure}{\numberline {8}{\ignorespaces Project average RSSI vector during the experimental period into 2 dimensional space by kernel PCA. Different color represents different team, each node is an employee}}{\thepage }{figure.8}}
\newlabel{fig:figure5}{{8}{\thepage }{Project average RSSI vector during the experimental period into 2 dimensional space by kernel PCA. Different color represents different team, each node is an employee}{figure.8}{}}
\citation{ref12}
\citation{ref13}
\@writefile{lof}{\contentsline {figure}{\numberline {9}{\ignorespaces Box plot of absolute error in each leave-one-employee-out cross validation. The average of MAE is plot with the star symbol}}{\thepage }{figure.9}}
\newlabel{fig:figure7}{{9}{\thepage }{Box plot of absolute error in each leave-one-employee-out cross validation. The average of MAE is plot with the star symbol}{figure.9}{}}
\@writefile{lot}{\contentsline {table}{\numberline {5}{\ignorespaces Top 10 Lasso selected features and weights}}{\thepage }{table.5}}
\newlabel{tab:table3}{{5}{\thepage }{Top 10 Lasso selected features and weights}{table.5}{}}
\@writefile{toc}{\contentsline {subsubsection}{\numberline {6.6.2}Work performance prediction with different feature descriptors}{\thepage }{subsubsection.6.6.2}}
\citation{ttest}
\citation{multitask_effect}
\citation{rMTFL}
\citation{multitask_tree}
\citation{multitask_group}
\@writefile{toc}{\contentsline {subsubsection}{\numberline {6.6.3}Work performance prediction with different regression models}{\thepage }{subsubsection.6.6.3}}
\@writefile{toc}{\contentsline {section}{\numberline {7}Conclusion}{\thepage }{section.7}}
\citation{ref10}
\citation{online3}
\bibstyle{abbrv}
\bibdata{references}
\bibcite{multitask_effect}{1}
\bibcite{pearson}{2}
\bibcite{l21}{3}
\bibcite{stress}{4}
\bibcite{ref9}{5}
\bibcite{ref6}{6}
\bibcite{ref7}{7}
\bibcite{multi3}{8}
\bibcite{ref16}{9}
\@writefile{lot}{\contentsline {table}{\numberline {6}{\ignorespaces Comparison of different work performance prediction model with five kinds of KPIs}}{\thepage }{table.6}}
\newlabel{tab:multitask_5kpis}{{6}{\thepage }{Comparison of different work performance prediction model with five kinds of KPIs}{table.6}{}}
\@writefile{lot}{\contentsline {table}{\numberline {7}{\ignorespaces Comparison of different work performance prediction model with four kinds of related KPIs}}{\thepage }{table.7}}
\newlabel{tab:multitask_4kpis}{{7}{\thepage }{Comparison of different work performance prediction model with four kinds of related KPIs}{table.7}{}}
\@writefile{toc}{\contentsline {chapter}{Acknowledgement}{\thepage }{section*.4}}
\bibcite{ref10}{10}
\bibcite{rMTFL}{11}
\bibcite{multitask_tree}{12}
\bibcite{mentalHealth}{13}
\bibcite{jaques2017predicting}{14}
\bibcite{questionnaire2}{15}
\bibcite{health1}{16}
\bibcite{multi4}{17}
\bibcite{workSatisfication}{18}
\bibcite{ref14}{19}
\bibcite{ref8}{20}
\bibcite{questionnaire3}{21}
\bibcite{online3}{22}
\bibcite{health2}{23}
\bibcite{ref15}{24}
\bibcite{lasso}{25}
\bibcite{ref11}{26}
\bibcite{health3}{27}
\bibcite{ref1}{28}
\bibcite{ref2}{29}
\bibcite{health4}{30}
\bibcite{ref4}{31}
\bibcite{ref5}{32}
\bibcite{ref3}{33}
\bibcite{ref12}{34}
\bibcite{l21Origin}{35}
\bibcite{ref13}{36}
\bibcite{multitask_group}{37}
\bibcite{multi5}{38}
\bibcite{ttest}{39}
