\relax 
\providecommand\hyper@newdestlabel[2]{}
\providecommand\HyperFirstAtBeginDocument{\AtBeginDocument}
\HyperFirstAtBeginDocument{\ifx\hyper@anchor\@undefined
\global\let\oldcontentsline\contentsline
\gdef\contentsline#1#2#3#4{\oldcontentsline{#1}{#2}{#3}}
\global\let\oldnewlabel\newlabel
\gdef\newlabel#1#2{\newlabelxx{#1}#2}
\gdef\newlabelxx#1#2#3#4#5#6{\oldnewlabel{#1}{{#2}{#3}}}
\AtEndDocument{\ifx\hyper@anchor\@undefined
\let\contentsline\oldcontentsline
\let\newlabel\oldnewlabel
\fi}
\fi}
\global\let\hyper@last\relax 
\gdef\HyperFirstAtBeginDocument#1{#1}
\providecommand*\HyPL@Entry[1]{}
\HyPL@Entry{0<</S/D>>}
\HyPL@Entry{1<</S/D>>}
\@writefile{toc}{\contentsline {chapter}{Abstract}{1}{Doc-Start}}
\HyPL@Entry{2<</S/D>>}
\citation{ref11}
\citation{questionnaire2}
\citation{questionnaire3}
\citation{ref1}
\citation{ref3}
\citation{ref4}
\citation{ref5}
\citation{ref12}
\citation{ref13}
\citation{ref1}
\citation{ref2}
\citation{ref3}
\citation{ref4}
\citation{ref5}
\citation{ref9}
\citation{ref12}
\citation{ref13}
\citation{ref2}
\citation{ref16}
\citation{mentalHealth}
\citation{health2}
\citation{health3}
\citation{health4}
\citation{workSatisfication}
\citation{l21}
\citation{rMTFL}
\citation{multi3}
\citation{multi4}
\citation{multi5}
\@writefile{toc}{\contentsline {chapter}{\numberline {1}Introduction}{2}{chapter.1}}
\@writefile{lof}{\addvspace {10\p@ }}
\@writefile{lot}{\addvspace {10\p@ }}
\citation{ref11}
\citation{stress}
\citation{mentalHealth}
\citation{health1}
\citation{health2}
\citation{health3}
\citation{health4}
\citation{workSatisfication}
\citation{ref1}
\citation{ref3}
\citation{ref4}
\citation{ref5}
\citation{ref12}
\citation{ref13}
\citation{ref4}
\citation{ref2}
\citation{ref4}
\citation{ref5}
\citation{ref6}
\citation{ref9}
\citation{ref5}
\citation{ref9}
\@writefile{toc}{\contentsline {chapter}{\numberline {2}Related work}{4}{chapter.2}}
\@writefile{lof}{\addvspace {10\p@ }}
\@writefile{lot}{\addvspace {10\p@ }}
\citation{ref7}
\citation{ref9}
\citation{ref6}
\citation{ref12}
\citation{mentalHealth}
\citation{ref2}
\citation{health2}
\citation{health3}
\citation{health4}
\citation{lasso}
\citation{multi5}
\citation{multi3}
\citation{jaques2017predicting}
\citation{mentalHealth}
\citation{ref2}
\citation{health2}
\@writefile{toc}{\contentsline {chapter}{\numberline {3}Problem setting for work performance prediction}{6}{chapter.3}}
\@writefile{lof}{\addvspace {10\p@ }}
\@writefile{lot}{\addvspace {10\p@ }}
\@writefile{toc}{\contentsline {section}{\numberline {3.1}Linear regression based work performance prediction}{6}{section.3.1}}
\newlabel{eq:1}{{3.1}{6}{Linear regression based work performance prediction}{equation.3.1.1}{}}
\newlabel{eq:2}{{3.2}{6}{Linear regression based work performance prediction}{equation.3.1.2}{}}
\@writefile{toc}{\contentsline {section}{\numberline {3.2}Limitation of the baseline model}{6}{section.3.2}}
\citation{ref8}
\@writefile{toc}{\contentsline {chapter}{\numberline {4}Designing feature descriptors}{8}{chapter.4}}
\@writefile{lof}{\addvspace {10\p@ }}
\@writefile{lot}{\addvspace {10\p@ }}
\@writefile{toc}{\contentsline {section}{\numberline {4.1}Movement features}{8}{section.4.1}}
\@writefile{toc}{\contentsline {section}{\numberline {4.2}Location and Colocation features}{8}{section.4.2}}
\@writefile{lot}{\contentsline {table}{\numberline {4.1}{\ignorespaces Feature descriptor with multi-modal communication features}}{9}{table.4.1}}
\newlabel{tab:featureList}{{4.1}{9}{Feature descriptor with multi-modal communication features}{table.4.1}{}}
\newlabel{eq:3}{{4.1}{9}{Location and Colocation features}{equation.4.2.1}{}}
\newlabel{eq:5}{{4.2}{9}{Location and Colocation features}{equation.4.2.2}{}}
\newlabel{eq:4}{{4.3}{9}{Location and Colocation features}{equation.4.2.3}{}}
\newlabel{eq:6}{{4.4}{9}{Location and Colocation features}{equation.4.2.4}{}}
\citation{ref14}
\@writefile{lof}{\contentsline {figure}{\numberline {4.1}{\ignorespaces The pipeline of inferring location index: We count average RSSI vector every five minutes, and project the vector to a new feature space by a kernel PCA(Principal Component Analysis) model. The final location index is inferred from a GMM(Gaussian Mixture Model).}}{10}{figure.4.1}}
\newlabel{fig:figure2}{{4.1}{10}{The pipeline of inferring location index: We count average RSSI vector every five minutes, and project the vector to a new feature space by a kernel PCA(Principal Component Analysis) model. The final location index is inferred from a GMM(Gaussian Mixture Model)}{figure.4.1}{}}
\newlabel{eq:7}{{4.5}{10}{Location and Colocation features}{equation.4.2.5}{}}
\@writefile{toc}{\contentsline {section}{\numberline {4.3}Face to face communication features}{10}{section.4.3}}
\citation{l21}
\citation{l21Origin}
\citation{malsar}
\@writefile{toc}{\contentsline {chapter}{\numberline {5}Multitask KPI regression with group lasso}{11}{chapter.5}}
\@writefile{lof}{\addvspace {10\p@ }}
\@writefile{lot}{\addvspace {10\p@ }}
\newlabel{eq:normalization}{{5.1}{11}{Multitask KPI regression with group lasso}{equation.5.0.1}{}}
\newlabel{eq:l21}{{5.2}{11}{Multitask KPI regression with group lasso}{equation.5.0.2}{}}
\newlabel{eq:normalization}{{5.3}{11}{Multitask KPI regression with group lasso}{equation.5.0.3}{}}
\@writefile{toc}{\contentsline {chapter}{\numberline {6}Experiment Result}{13}{chapter.6}}
\@writefile{lof}{\addvspace {10\p@ }}
\@writefile{lot}{\addvspace {10\p@ }}
\@writefile{toc}{\contentsline {section}{\numberline {6.1}Motivation of the Experiment}{13}{section.6.1}}
\@writefile{toc}{\contentsline {section}{\numberline {6.2}Raw sensor and KPI Dataset}{13}{section.6.2}}
\@writefile{lof}{\contentsline {figure}{\numberline {6.1}{\ignorespaces The pipeline of this work contains three parts: A. Data collection from sociometric badges; B. Extract features from raw sensor data, we focus on the communication features; C. Train a regression model to predict numeric work performance with different modalities of communication features.}}{14}{figure.6.1}}
\newlabel{fig:figure1}{{6.1}{14}{The pipeline of this work contains three parts: A. Data collection from sociometric badges; B. Extract features from raw sensor data, we focus on the communication features; C. Train a regression model to predict numeric work performance with different modalities of communication features}{figure.6.1}{}}
\@writefile{lot}{\contentsline {table}{\numberline {6.1}{\ignorespaces Structure of the organization, we choose team 2 as the target team for work peformance prediction.}}{14}{table.6.1}}
\newlabel{tab:table2}{{6.1}{14}{Structure of the organization, we choose team 2 as the target team for work peformance prediction}{table.6.1}{}}
\@writefile{toc}{\contentsline {section}{\numberline {6.3}Feature descriptors for comparison}{14}{section.6.3}}
\@writefile{lof}{\contentsline {figure}{\numberline {6.2}{\ignorespaces Room layout of the office.}}{15}{figure.6.2}}
\newlabel{fig:figure3}{{6.2}{15}{Room layout of the office}{figure.6.2}{}}
\@writefile{lof}{\contentsline {figure}{\numberline {6.3}{\ignorespaces sociometric badge used in this study.}}{15}{figure.6.3}}
\newlabel{fig:sensor}{{6.3}{15}{sociometric badge used in this study}{figure.6.3}{}}
\@writefile{lof}{\contentsline {figure}{\numberline {6.4}{\ignorespaces The relationship between job type 1 and job type 2.}}{16}{figure.6.4}}
\newlabel{fig:relaitonOfJobType}{{6.4}{16}{The relationship between job type 1 and job type 2}{figure.6.4}{}}
\@writefile{lot}{\contentsline {table}{\numberline {6.2}{\ignorespaces Attributes of raw sensor data}}{16}{table.6.2}}
\newlabel{tab:raw sensor data}{{6.2}{16}{Attributes of raw sensor data}{table.6.2}{}}
\@writefile{lot}{\contentsline {table}{\numberline {6.3}{\ignorespaces The meaning and distribution of the five KPIs}}{16}{table.6.3}}
\newlabel{tab:KPI}{{6.3}{16}{The meaning and distribution of the five KPIs}{table.6.3}{}}
\@writefile{lof}{\contentsline {figure}{\numberline {6.5}{\ignorespaces Pair wise plot of different KPIs and Pearson's R-value between each pair of KPIs.}}{17}{figure.6.5}}
\newlabel{fig:KPIs}{{6.5}{17}{Pair wise plot of different KPIs and Pearson's R-value between each pair of KPIs}{figure.6.5}{}}
\citation{pearson}
\@writefile{toc}{\contentsline {section}{\numberline {6.4}Regression models for comparison}{18}{section.6.4}}
\@writefile{toc}{\contentsline {section}{\numberline {6.5}Evaluation metric}{18}{section.6.5}}
\newlabel{eq:MAE}{{6.1}{18}{Evaluation metric}{equation.6.5.1}{}}
\@writefile{toc}{\contentsline {section}{\numberline {6.6}Result and discussion}{18}{section.6.6}}
\citation{ref15}
\@writefile{lof}{\contentsline {figure}{\numberline {6.6}{\ignorespaces F2F social network. Different color represents different team, each node is an employee, and width of each edge represents communication times}}{19}{figure.6.6}}
\newlabel{fig:figure4}{{6.6}{19}{F2F social network. Different color represents different team, each node is an employee, and width of each edge represents communication times}{figure.6.6}{}}
\@writefile{toc}{\contentsline {subsection}{\numberline {6.6.1}Visualization of communication dataset}{19}{subsection.6.6.1}}
\@writefile{lof}{\contentsline {figure}{\numberline {6.7}{\ignorespaces Project average RSSI vector during the experimental period into 2 dimensional space by kernel PCA. Different color represents different team, each node is an employee}}{20}{figure.6.7}}
\newlabel{fig:figure5}{{6.7}{20}{Project average RSSI vector during the experimental period into 2 dimensional space by kernel PCA. Different color represents different team, each node is an employee}{figure.6.7}{}}
\@writefile{lot}{\contentsline {table}{\numberline {6.4}{\ignorespaces Top 10 Lasso selected features and weights}}{20}{table.6.4}}
\newlabel{tab:table3}{{6.4}{20}{Top 10 Lasso selected features and weights}{table.6.4}{}}
\@writefile{lof}{\contentsline {figure}{\numberline {6.8}{\ignorespaces Box plot of absolute error in each leave-one-employee-out cross validation. The average of MAE is plot with the star symbol}}{21}{figure.6.8}}
\newlabel{fig:figure7}{{6.8}{21}{Box plot of absolute error in each leave-one-employee-out cross validation. The average of MAE is plot with the star symbol}{figure.6.8}{}}
\citation{ref12}
\citation{ref13}
\@writefile{toc}{\contentsline {subsection}{\numberline {6.6.2}Result comparison for multi-modal communication features}{22}{subsection.6.6.2}}
\citation{ttest}
\citation{multitask_effect}
\citation{rMTFL}
\citation{multitask_tree}
\citation{multitask_group}
\@writefile{toc}{\contentsline {subsection}{\numberline {6.6.3}Result comparison for multitask KPI prediction}{23}{subsection.6.6.3}}
\@writefile{lot}{\contentsline {table}{\numberline {6.5}{\ignorespaces Comparison of different work performance prediction model with five kinds of KPIs}}{24}{table.6.5}}
\newlabel{tab:multitask_5kpis}{{6.5}{24}{Comparison of different work performance prediction model with five kinds of KPIs}{table.6.5}{}}
\@writefile{lot}{\contentsline {table}{\numberline {6.6}{\ignorespaces Comparison of different work performance prediction model with four kinds of related KPIs}}{24}{table.6.6}}
\newlabel{tab:multitask_4kpis}{{6.6}{24}{Comparison of different work performance prediction model with four kinds of related KPIs}{table.6.6}{}}
\citation{ref10}
\citation{online3}
\@writefile{toc}{\contentsline {chapter}{\numberline {7}Conclusion}{25}{chapter.7}}
\@writefile{lof}{\addvspace {10\p@ }}
\@writefile{lot}{\addvspace {10\p@ }}
\@writefile{toc}{\contentsline {chapter}{Acknowledgement}{27}{chapter*.2}}
\bibstyle{abbrv}
\bibdata{references}
\bibcite{multitask_effect}{1}
\bibcite{pearson}{2}
\bibcite{l21}{3}
\bibcite{stress}{4}
\bibcite{ref9}{5}
\bibcite{ref6}{6}
\bibcite{ref7}{7}
\bibcite{multi3}{8}
\bibcite{ref16}{9}
\bibcite{ref10}{10}
\bibcite{rMTFL}{11}
\@writefile{toc}{\contentsline {chapter}{References}{29}{chapter*.3}}
\bibcite{multitask_tree}{12}
\bibcite{mentalHealth}{13}
\bibcite{jaques2017predicting}{14}
\bibcite{questionnaire2}{15}
\bibcite{health1}{16}
\bibcite{multi4}{17}
\bibcite{workSatisfication}{18}
\bibcite{ref14}{19}
\bibcite{ref8}{20}
\bibcite{questionnaire3}{21}
\bibcite{online3}{22}
\bibcite{health2}{23}
\bibcite{ref15}{24}
\bibcite{lasso}{25}
\bibcite{ref11}{26}
\bibcite{health3}{27}
\bibcite{ref1}{28}
\bibcite{ref2}{29}
\bibcite{health4}{30}
\bibcite{ref4}{31}
\bibcite{ref5}{32}
\bibcite{ref3}{33}
\bibcite{ref12}{34}
\bibcite{l21Origin}{35}
\bibcite{ref13}{36}
\bibcite{multitask_group}{37}
\bibcite{malsar}{38}
\bibcite{multi5}{39}
\bibcite{ttest}{40}
